<?xml version="1.0" encoding="utf-8"?>
<!-- Generator: Adobe Illustrator 24.0.0, SVG Export Plug-In . SVG Version: 6.00 Build 0)  -->
<svg version="1.1" id="flourish" xmlns="http://www.w3.org/2000/svg" xmlns:xlink="http://www.w3.org/1999/xlink" x="0px" y="0px"
	 viewBox="0 0 2609.9 300.3" style="enable-background:new 0 0 2609.9 300.3;" xml:space="preserve">
<style type="text/css">
	.st0{fill:#C4A96B;}
</style>
<g id="Line">
	<path class="st0" d="M2598.1,232.6h-942c-0.8,2.3-1.6,4.6-2.7,6.9h949.9L2598.1,232.6z"/>
	<path class="st0" d="M6.7,239.5h949.7c-1-2.3-1.9-4.5-2.7-6.9H12L6.7,239.5z"/>
	<path class="st0" d="M1644.1,232.6h-223.5l5.2,6.9h215.5C1642.5,237.3,1643.4,235,1644.1,232.6z"/>
	<path class="st0" d="M968.5,239.5H1184l5.2-6.9H965.7C966.4,235,967.4,237.3,968.5,239.5z"/>
</g>
<g id="Main_B">
	<path class="st0" d="M1620.8,178.5c49.3,25.9,28.2,95.1-31.1,77.7c-2.6-10.5-15.7-5.5-10.2,1.9c5.5,6.8,27.7,8.6,41,5.6
		c59.7-12.6,54.9-131.8-79.1-112.7l-2.3,0.4c1.7,5.2,2.5,11.2,2.5,16.3C1570.8,163.1,1603.3,169.2,1620.8,178.5z M1068.2,167.6
		c0-5,0.8-11.1,2.5-16.3l-2.3-0.4c-134-19.1-138.7,100.1-79.1,112.7c13.3,3,35.5,1.1,41-5.6c5.6-7.4-7.5-12.4-10.2-1.9
		c-59.3,17.4-80.4-51.7-31.1-77.7C1006.6,169.2,1039,163.1,1068.2,167.6z M1304.9,271.7c17.3,0.4,37.8-4,61.2-15.8
		c55-28,108.6-72.9,164.7-86.2c0.3-3-0.2-11.2-2.4-16.3c-69.6,14.8-146.7,91.9-206.7,103.3c-5.8,1.1-11.4,1.9-16.8,2.2
		c-5.4-0.3-11.1-1.1-16.8-2.2c-60-11.4-137.1-88.5-206.7-103.3c-2.2,5.2-2.7,13.4-2.4,16.3c56.1,13.3,109.7,58.2,164.7,86.2
		C1267.2,267.7,1287.6,272.1,1304.9,271.7z"/>
</g>
<g id="Main_A">
	<path class="st0" d="M1500.2,120.8c-41-11.3-82.4,20.5-116.2,44.2c-12.9-9.2-17.1-12.3-23.3-16.6c33.6-38.7,16.8-100.1-39-116.8
		c-5.4-1.5-11-2.5-16.8-3c-5.7,0.5-11.4,1.5-16.8,3c-55.8,16.7-72.6,78.1-39,116.8c-6.1,4.3-10.3,7.3-23.3,16.6
		c-33.8-23.7-75.2-55.5-116.2-44.2c-43.7,12-46.7,54.8-31.3,74.9c20.9,27.7,58.4,29.5,85.9,15.8l-7-4.3
		c-109.8,44.5-122.2-160.6,54.8-32.5c-20.2,14.1-32.1,20.8-34.7,22.3l6.5,4c9.3-5.6,19-11.7,34.1-22.1c33.1,23.7,62.5,34.3,87,36
		c24.5-1.7,54-12.2,87-36c15.1,10.5,24.7,16.5,34.1,22.1l6.5-4c-2.6-1.6-14.5-8.3-34.7-22.3c177-128.1,164.5,77,54.8,32.5l-7,4.3
		c27.5,13.7,65,11.9,85.9-15.8C1547,175.6,1544,132.8,1500.2,120.8z M1245.4,117.9c-5.3-46.4,25.2-71.7,59.5-77.7
		c34.3,6,64.8,31.2,59.3,77.7c-1.9,15.5-6.1,21.7-9,25.8h-0.1l-0.5,0.6c-21-14.7-37.7-19.5-49.8-18.6c-12.2-0.9-28.8,3.9-49.8,18.6
		l-0.5-0.6h-0.1C1251.5,139.6,1247.3,133.5,1245.4,117.9z M1350.2,149.4c-16.5,16.5-33.2,20.7-45.4,18.3
		c-12.1,2.4-28.9-1.8-45.4-18.3c5.2-3.4,12.2-8,19.9-11.3c6.9-2.9,17-5.7,25.6-5.3c8.6-0.4,18.8,2.4,25.4,5.3
		C1338,141.5,1345,146,1350.2,149.4z M1304.8,202.3c-21-3.5-45.8-13.8-73.3-33.3c7.7-5.5,14-10.1,22.2-15.7
		c11.5,11.5,25.7,20.7,42,21.4c3.5,0.3,6.5,0.2,9.2-0.2c2.8,0.4,5.8,0.5,9,0.2c16.3-0.7,30.6-9.9,42-21.4
		c8.2,5.6,14.5,10.2,22.2,15.7C1350.6,188.5,1325.8,198.8,1304.8,202.3z"/>
</g>
</svg>
