<?xml version="1.0" encoding="utf-8"?>
<!-- Generator: Adobe Illustrator 24.0.0, SVG Export Plug-In . SVG Version: 6.00 Build 0)  -->
<svg version="1.1" id="Layer_1" xmlns="http://www.w3.org/2000/svg" xmlns:xlink="http://www.w3.org/1999/xlink" x="0px" y="0px"
	 viewBox="0 0 1315.7 312.3" style="enable-background:new 0 0 1315.7 312.3;" xml:space="preserve">
<style type="text/css">
	.st0{fill:#C4A96B;}
</style>
<g>
	<path class="st0" d="M275.3,21.9c40,7.1,84.4,23.1,129.3,41.9c-5.6,3.6-10.7,7.5-15.8,11.8c-65.8-27.4-132.7-47.9-205.8-40
		C6.4,54.8,24.7,205.9,83.3,235.7c32.1,16.2,109.2,10.5,116.3-55.8c2.1-20.3-3-43-16.5-57.7c-7.7-8.3-5.3-6.8-15-3.6
		c-11.1,4.1-22.9,6.6-32.7,0.4c-25.4-16.2,12.4-46.4,51.1-16.9c56.2,42.8,39.5,165.7-75.9,158.2c-85.1-5.6-110.1-115.9-60.1-180
		C98.9,18.5,199.2,8.2,275.3,21.9z"/>
	<path class="st0" d="M328.5,163.8h-100c-0.4-5.3-1.1-10.7-2.1-15.8h106.2C331.1,153.4,329.6,158.5,328.5,163.8z"/>
	<path class="st0" d="M188.9,163.8H53.6c-0.4-5.3-0.4-10.7,0-15.8h131.9C187.2,153.1,188.3,158.5,188.9,163.8z"/>
	<path class="st0" d="M425.5,91.6c6.4-4.1,12.8-7.7,19.2-10.7c37.2,16.5,74,33.6,107.1,47.2l128.5,47.7c23.5,8.1,70.8,20.5,71,35.9
		c0.2,17.5-33.6,10.7-34-2.6v-1.9l-101.5-35.5c-54.9-20.1-109.2-43.6-163.3-68C443.5,99.7,434.5,95.6,425.5,91.6z"/>
	<path class="st0" d="M636.5,148h111.4l7.5,3.6c8.3,4.1,16.5,8.1,24.8,12.2H679L636.5,148z"/>
	<path class="st0" d="M1258.5,163.8H940.7c-2.1-2.4-4.1-4.9-6-7.5c-2.1-2.6-4.1-5.3-6-8.3h329.8L1258.5,163.8L1258.5,163.8z"/>
	<path class="st0" d="M379.1,148h147.3c12.8,5.3,25.7,10.7,38.5,15.8H373C374.4,158.5,376.6,153.1,379.1,148z"/>
	<path class="st0" d="M676.7,51.4c66.7,22.2,162.7,75.2,230.9,115.6c-4.7-6.6-8.6-13-11.8-19.5c-4.1-8.8-7.3-17.3-9.2-26.3
		c-2.4-9.4-3.6-19.2-3.4-29.3c0.4-9,1.9-18,4.9-26.3c3.6-9,9-17.3,16.2-24.4c6.8-6.6,15.4-12,25.2-15.6c9.6-3.6,20.7-5.3,31.4-5.6
		c11.1,0,22,1.5,31,4.7c8.1,3,14.7,7.3,19.7,11.8c6.4,6.2,10,13,10.9,18.8c0.6,3.8,0,7.3-1.3,10c-1.3,2.8-3.2,4.7-5.6,6.2
		c-2.6,1.3-5.3,1.9-8.3,1.5c-3-0.4-6-1.7-8.5-4.3c-6-5.3-10-16.5-13.9-28.2c-6.6-2.1-15.2-3.2-23.7-3.2c-8.8,0.2-18,1.7-25.7,4.5
		c-7.5,2.8-13.9,6.8-19.2,11.8c-5.3,5.1-9.4,11.3-12,18.2c-2.4,6.4-3.6,13.5-3.8,20.5c-0.2,8.3,0.9,16.7,3,25
		c1.7,7.7,4.3,15.2,7.9,22.4c3.6,7.5,8.5,15,14.5,23.1c50.7,66.3,162.9,100.9,242.8,87.2c61.1-10.3,111.6-51.7,106.9-116.5
		c-3.2-47.7-53-56.4-85.1-49.6c-5.1,11.1-11.3,25.2-22.2,31.4c-17.3,9.8-37-1.9-31.2-19.2c9-26.9,54.5-38.7,86.8-34.6
		c95.3,11.8,84,110.1,46.6,157.1c-68.8,86.8-222.5,54.5-308.2,20.5c-127-50.7-326-181.1-454.7-177.6c-37.6,0.9-65.2,9.2-92.6,29.3
		c-105,77.4-46.2,193.2,41.9,182.3c18.8-2.1,35.3-11.5,49.4-21.2c-2.8-17.7-5.6-37.2,7.3-44.9c25.9-15.4,66.3,36.6-19.7,77.4
		c-99.6,47.2-203.3-63.1-134.9-166.3C425.7,17.6,574.3,17.2,676.7,51.4z"/>
</g>
</svg>
