<?xml version="1.0" encoding="utf-8"?>
<!-- Generator: Adobe Illustrator 24.0.0, SVG Export Plug-In . SVG Version: 6.00 Build 0)  -->
<svg version="1.1" id="Layer_1" xmlns="http://www.w3.org/2000/svg" xmlns:xlink="http://www.w3.org/1999/xlink" x="0px" y="0px"
	 viewBox="0 0 368.8 22.8" style="enable-background:new 0 0 368.8 22.8;" xml:space="preserve">
<style type="text/css">
	.st0{fill:#C4A96B;}
</style>
<path class="st0" d="M366.8,11.2l-136.6,5.3c-0.4,0-0.8-0.2-1.1-0.6c-0.7-1.1-2.4-3.2-4.9-3.1c-2.8,0.2-5.1,1.9-6.3,3.9
	c-0.4,0.6-1.1,0.7-1.7,0.4c-2.3-1.5-9.1-4.7-16.3-4.4c-7.2,0.3-13.1,4.5-15.1,5.9c-0.4,0.2-0.8,0.2-1.2,0c-2.1-1.5-6-5.6-14.9-5.9
	c-8.4,0.3-16.1,4-16.3,4.1c-0.6,0.2-1.3,0.2-1.7-0.3c-1.1-1.5-3.4-4.2-6.4-3.8c-3,0.4-4.3,2-4.7,2.9c-0.2,0.4-0.6,0.6-1.1,0.6
	l-136.9-5c-0.3,0-0.3-0.4,0-0.5l136.6-5.3c0.4,0,0.8,0.2,1.1,0.6c0.7,1.1,2.4,3.3,4.9,3.1c2.8-0.2,5.1-1.9,6.3-3.9
	c0.3-0.6,1.1-0.7,1.7-0.4c2.3,1.5,9.1,4.7,16.3,4.4c7.6-0.3,13.8-5,15.4-6.1c0.2-0.1,0.4-0.1,0.6,0c1.7,1.2,10,6.2,16.5,6.3
	c8.9,0.1,15-4.3,15-4.4c0.2-0.6,1.3-0.2,1.7,0.3c1.1,1.5,3.4,4.2,6.4,3.8c3-0.4,4.3-2,4.8-2.9c0.2-0.4,0.6-0.6,1.1-0.6l136.9,5
	C367.1,10.7,367.1,11.2,366.8,11.2z"/>
</svg>
